com\example\api\dao\OrderItemRepository.class
com\example\api\dao\OrderRepositoryCustomImpl.class
com\example\api\dao\BigProductCategoryRepositoryCustomImpl.class
com\example\api\dao\ProductCategoryRepositoryCustom.class
com\example\api\controllers\OrderItemController.class
com\example\api\dao\RoleRepository.class
com\example\api\configuration\SimpleCorsFilter.class
com\example\api\dao\UploadFileResponseRepositoryCustomImpl.class
com\example\api\dao\BigProductCategoryRepository.class
com\example\api\controllers\OrderController.class
com\example\api\configuration\WebSecurityConfig.class
com\example\api\configuration\PageConfig.class
com\example\api\model\Product.class
com\example\api\controllers\LoginController.class
com\example\api\dao\UploadFileResponseRepository.class
com\example\api\model\Order.class
com\example\api\dao\EmployeeRepositoryCustomImpl.class
com\example\api\dao\UploadFileResponseRepositoryCustom.class
com\example\api\dao\BigProductCategoryRepositoryCustom.class
com\example\api\dao\OrderRepositoryCustom.class
com\example\api\model\FileStorageProperties.class
com\example\api\dao\OrderItemRepositoryCustomImpl.class
com\example\api\dao\ProductCategoryRepositoryCustomImpl.class
com\example\api\exception\MyFileNotFoundException.class
com\example\api\configuration\CustomizeAuthenticationSuccessHandler.class
com\example\api\dao\ProductRepositoryCustom.class
com\example\api\utilities\DateTime.class
com\example\api\model\FormOrderCLient.class
com\example\api\model\UserStaff.class
com\example\api\model\OrderItem.class
com\example\api\SpringBootMongoDbApplication.class
com\example\api\configuration\WebSocketConfiguration.class
com\example\api\dao\ProductRepository.class
com\example\api\dao\OrderRepository.class
com\example\api\services\FileStorageService.class
com\example\api\model\UploadFileResponse.class
com\example\api\dao\ProductCategoryRepository.class
com\example\api\exception\FileStorageException.class
com\example\api\model\Role.class
com\example\api\controllers\UserStaffController.class
com\example\api\services\CustomUserDetailsService.class
com\example\api\model\BigCategory.class
com\example\api\configuration\CurrentUser.class
com\example\api\SpringBootMongoDbApplication$1.class
com\example\api\controllers\FileController.class
com\example\api\dao\UserRepository.class
com\example\api\exception\BigCategoryRepositoryCustomImpl.class
com\example\api\model\Order_OrderItem.class
com\example\api\model\User.class
com\example\api\dao\OrderItemRepositoryCustom.class
com\example\api\exception\BigCategoryRepositoryCustom.class
com\example\api\model\ProductCategory.class
com\example\api\controllers\ProductCategoryController.class
com\example\api\controllers\ProductController.class
com\example\api\dao\EmployeeRepositoryCustom.class
com\example\api\model\Employee.class
com\example\api\services\UserService.class
com\example\api\exception\BigCategoryRepository.class
com\example\api\dao\ProductRepositoryCustomImpl.class
com\example\api\dao\EmployeeRepository.class
com\example\api\controllers\BigCategoryController.class
